{
  "project_info": {
    "project_number": "312286321609",
    "firebase_url": "https://bincard-329dc.firebaseio.com",
    "project_id": "bincard-329dc",
    "storage_bucket": "bincard-329dc.appspot.com"
  },
  "client": [
    {
      "client_info": {
        "mobilesdk_app_id": "1:312286321609:android:ce537f8fbbbfb81c",
        "android_client_info": {
          "package_name": "com.live.elisvobs.bincard"
        }
      },
      "oauth_client": [
        {
          "client_id": "312286321609-tja5djr8athiepngdqioavijk11uq63d.apps.googleusercontent.com",
          "client_type": 1,
          "android_info": {
            "package_name": "com.live.elisvobs.bincard",
            "certificate_hash": "6b666876e1f16afa146950eed95fcf5285221876"
          }
        },
        {
          "client_id": "312286321609-dlfngi8hikpia3rmvg6u0r9pt33noo02.apps.googleusercontent.com",
          "client_type": 3
        },
        {
          "client_id": "312286321609-dlfngi8hikpia3rmvg6u0r9pt33noo02.apps.googleusercontent.com",
          "client_type": 3
        }
      ],
      "api_key": [
        {
          "current_key": "AIzaSyBXxRvJwAV-LzAHPMgevIKzae946Jlabjs"
        }
      ],
      "services": {
        "analytics_service": {
          "status": 1
        },
        "appinvite_service": {
          "status": 2,
          "other_platform_oauth_client": [
            {
              "client_id": "312286321609-dlfngi8hikpia3rmvg6u0r9pt33noo02.apps.googleusercontent.com",
              "client_type": 3
            }
          ]
        },
        "ads_service": {
          "status": 2
        }
      }
    }
  ],
  "configuration_version": "1"
}